<svg width="172" height="39" viewBox="0 0 172 39" fill="none" xmlns="http://www.w3.org/2000/svg">
    <g clip-path="url(#clip0_1701_65)">
        <path fill-rule="evenodd" clip-rule="evenodd" d="M0.806396 0.970947H69.5968V28.3121H0.806396V0.970947ZM54.5587 17.813L48.653 18.852C49.8014 22.8985 52.9729 24.9217 58.0037 25.0311C60.7925 25.0311 63.0345 24.4296 64.7296 23.1719C66.4248 21.9142 67.2997 20.2737 67.2997 18.2505C67.2997 16.9381 66.9716 15.8444 66.2607 14.9148C65.5499 13.9306 64.675 13.2744 63.636 12.8916C62.597 12.5088 60.7925 12.0167 58.3318 11.5245C57.4569 11.3058 56.8554 11.1418 56.5273 10.923C56.1992 10.7043 56.0351 10.4309 56.0351 10.0481C56.0351 9.22788 56.746 8.79041 58.1131 8.79041C59.8082 8.79041 60.9019 9.50129 61.4487 10.8137L66.7529 9.28257C65.4405 6.00163 62.597 4.36116 58.3865 4.36116C55.5977 4.36116 53.4651 4.96266 51.9887 6.22035C50.5122 7.47805 49.7467 9.06384 49.7467 10.923C49.7467 12.3995 50.2388 13.6572 51.2778 14.7508C52.3168 15.8445 54.6134 16.7194 58.2771 17.3755C59.2067 17.5943 59.8629 17.813 60.2457 18.0317C60.6285 18.2505 60.7925 18.5786 60.7925 19.016C60.7925 19.8363 59.9723 20.219 58.3865 20.219C56.3632 20.219 55.0509 19.3988 54.5587 17.813ZM47.1766 24.5936V4.63457H38.8102L35.912 15.2429L32.9045 4.63457H24.5928V24.5936H29.3502V10.3215L33.342 24.5936H37.3885L41.2709 10.3215V24.5936H47.1766ZM22.2415 17.3209L16.3904 16.9928C16.1717 19.1801 15.2421 20.3284 13.547 20.3284C12.6174 20.3284 11.9065 19.9456 11.3597 19.1801C10.8675 18.4145 10.5941 16.9381 10.5941 14.7508C10.5941 10.8137 11.5784 8.89978 13.6016 8.89978C14.3125 8.89978 14.914 9.1732 15.4608 9.77471C16.0077 10.3762 16.2811 11.3605 16.2811 12.6729L22.2415 12.3448C22.0227 9.88406 21.2025 7.97019 19.7261 6.49376C18.2496 5.01734 16.117 4.30647 13.3829 4.30647C10.4301 4.30647 8.1334 5.29075 6.49293 7.20463C4.85246 9.11851 4.03223 11.6886 4.03223 14.8055C4.03223 17.977 4.90715 20.4378 6.65698 22.2423C8.40682 24.0468 10.6488 24.9217 13.4923 24.9217C15.8436 24.9217 17.8122 24.2655 19.398 22.9532C21.0384 21.6408 21.968 19.7816 22.2415 17.3209Z" fill="#A3B3CC"/>
        <path d="M167.26 18.2502C167.26 17.5393 167.096 17.0472 166.822 16.7738C166.549 16.5004 166.166 16.391 165.729 16.391C164.744 16.391 164.198 16.9925 164.198 18.2502H167.26ZM167.533 21.0937L171.525 21.3671C171.306 22.4607 170.705 23.3357 169.72 24.1012C168.736 24.8668 167.424 25.2495 165.783 25.2495C163.979 25.2495 162.502 24.7027 161.409 23.6638C160.315 22.6248 159.768 21.3124 159.768 19.7266C159.768 18.0861 160.315 16.7191 161.409 15.6254C162.502 14.5318 163.924 13.9303 165.729 13.9303C167.479 13.9303 168.846 14.4771 169.939 15.5161C171.033 16.555 171.525 17.9768 171.525 19.836C171.525 20 171.525 20.2188 171.525 20.4375H164.252C164.252 21.1484 164.362 21.6405 164.635 21.9686C164.854 22.2967 165.291 22.4607 165.947 22.4607C166.822 22.4061 167.369 21.9686 167.533 21.0937ZM158.128 24.9761H153.863V18.1408C153.863 17.594 153.753 17.2112 153.589 17.0472C153.425 16.8831 153.206 16.8285 152.933 16.8285C152.167 16.8285 151.785 17.3753 151.785 18.4689V24.9761H147.519V14.0943H151.457V15.6254C152.058 14.4771 153.097 13.8756 154.573 13.8756C155.339 13.8756 156.05 14.0397 156.597 14.3131C157.144 14.6412 157.526 15.0239 157.745 15.5161C157.964 16.0082 158.073 16.8285 158.073 18.0315V24.9761H158.128ZM145.277 24.9761H141.012V14.0943H145.277V24.9761ZM145.277 13.3288H141.012V9.93848H145.277V13.3288ZM139.536 22.242V24.9214H129.966V22.5701L134.56 16.6644C134.013 16.6644 133.63 16.7191 133.466 16.7191H130.349V14.0943H139.372V16.391L134.669 22.2967H135.216C135.325 22.2967 135.435 22.2967 135.544 22.2967H139.536V22.242ZM124.389 19.8907C122.584 20.1094 121.655 20.6562 121.655 21.6405C121.655 22.2967 122.037 22.6248 122.748 22.6248C123.186 22.6248 123.569 22.4607 123.897 22.242C124.225 21.9686 124.389 21.3671 124.389 20.4375V19.8907ZM128.818 24.9761H124.772C124.662 24.5387 124.608 23.9918 124.608 23.445C123.842 24.5934 122.694 25.1949 121.108 25.1949C119.85 25.1949 118.866 24.8668 118.21 24.2106C117.554 23.5544 117.225 22.7888 117.225 21.9686C117.225 20.8203 117.772 19.8907 118.811 19.1798C119.85 18.4689 121.709 18.0315 124.334 17.9221V17.6487C124.334 17.1566 124.225 16.8285 124.006 16.7191C123.787 16.555 123.459 16.5004 123.076 16.5004C122.092 16.5004 121.545 16.8831 121.436 17.7034L117.554 17.3206C118.1 15.0239 120.014 13.9303 123.24 13.9303C124.115 13.9303 124.936 14.0397 125.647 14.2037C126.357 14.3678 126.959 14.6412 127.396 15.0239C127.834 15.4067 128.107 15.7895 128.271 16.1723C128.435 16.6097 128.49 17.3753 128.49 18.5783V22.8982C128.49 23.6638 128.599 24.3746 128.818 24.9761ZM109.406 24.8121C109.242 24.8121 109.078 24.8121 108.914 24.8121C108.203 24.8121 107.82 25.0308 107.82 25.4683C107.82 25.9057 108.093 26.1791 108.64 26.2885C109.187 26.3979 109.953 26.4526 110.882 26.4526C111.757 26.4526 112.359 26.3979 112.577 26.2338C112.851 26.0698 112.96 25.9057 112.96 25.6323C112.96 25.4683 112.906 25.3042 112.796 25.1949C112.687 25.0855 112.413 24.9761 111.976 24.9761L109.406 24.8121ZM110.499 18.633C111.32 18.633 111.757 18.1955 111.757 17.3206C111.757 16.4457 111.32 15.9535 110.499 15.9535C109.679 15.9535 109.242 16.391 109.242 17.3206C109.187 18.1955 109.625 18.633 110.499 18.633ZM116.733 11.6336L116.624 14.5318H116.405C116.022 14.5318 115.749 14.4771 115.585 14.4771C114.929 14.4771 114.546 14.5865 114.382 14.8599C115.202 15.5161 115.585 16.3363 115.585 17.2659C115.585 18.3596 115.147 19.2345 114.273 19.7813C113.398 20.3281 112.195 20.6015 110.664 20.6015C110.609 20.6015 110.445 20.6015 110.117 20.6015C109.789 20.6015 109.625 20.6015 109.625 20.6015C108.914 20.6015 108.586 20.7656 108.586 21.1484C108.586 21.4765 108.914 21.6405 109.515 21.6405L113.015 21.8046C114.273 21.8592 115.202 22.242 115.804 22.8982C116.405 23.5544 116.679 24.3199 116.679 25.1949C116.679 26.2338 116.241 27.1087 115.366 27.7649C114.491 28.4211 112.741 28.7492 110.171 28.7492C106.234 28.7492 104.266 27.8196 104.266 26.0151C104.266 25.0308 104.813 24.3199 105.851 23.9372C105.195 23.445 104.813 22.8982 104.813 22.242C104.813 21.1484 105.523 20.3828 106.89 19.836C105.742 19.3438 105.141 18.4689 105.141 17.3206C105.141 16.2269 105.633 15.4067 106.562 14.8052C107.492 14.2037 108.804 13.9303 110.445 13.9303C111.21 13.9303 111.867 13.985 112.468 14.149C112.741 12.4539 113.616 11.5789 115.147 11.5789C115.585 11.5243 116.077 11.579 116.733 11.6336ZM99.1256 19.8907C97.321 20.1094 96.3914 20.6562 96.3914 21.6405C96.3914 22.2967 96.7742 22.6248 97.4851 22.6248C97.9226 22.6248 98.3053 22.4607 98.6334 22.242C98.9615 21.9686 99.1256 21.3671 99.1256 20.4375V19.8907ZM103.555 24.9761H99.5083C99.399 24.5387 99.3443 23.9918 99.3443 23.445C98.5787 24.5934 97.4304 25.1949 95.8446 25.1949C94.5869 25.1949 93.6026 24.8668 92.9464 24.2106C92.2903 23.5544 91.9622 22.7888 91.9622 21.9686C91.9622 20.8203 92.509 19.8907 93.548 19.1798C94.5869 18.4689 96.4461 18.0315 99.0709 17.9221V17.6487C99.0709 17.1566 98.9615 16.8285 98.7428 16.7191C98.524 16.555 98.196 16.5004 97.8132 16.5004C96.8289 16.5004 96.2821 16.8831 96.1727 17.7034L92.2903 17.3206C92.8371 15.0239 94.751 13.9303 97.9772 13.9303C98.8521 13.9303 99.6724 14.0397 100.383 14.2037C101.094 14.3678 101.696 14.6412 102.133 15.0239C102.571 15.4067 102.844 15.7895 103.008 16.1723C103.172 16.6097 103.227 17.3753 103.227 18.5783V22.8982C103.227 23.6638 103.336 24.3746 103.555 24.9761ZM90.3217 24.9761H86.2205V18.1955C86.2205 17.7581 86.1658 17.43 86.0018 17.2659C85.8924 17.1019 85.619 16.9925 85.2909 16.9925C84.4707 16.9925 84.0879 17.594 84.0879 18.7423V25.0308H79.9867V18.2502C79.9867 17.3753 79.6586 16.9378 79.0024 16.9378C78.2916 16.9378 77.9635 17.3753 77.9635 18.2502V25.0308H73.8623V14.0943H77.6901V15.5708C78.4009 14.4224 79.3852 13.8756 80.6976 13.8756C82.1193 13.8756 83.1036 14.4224 83.7598 15.5708C84.4707 14.4224 85.5643 13.8756 86.9861 13.8756C87.6969 13.8756 88.2984 14.0397 88.8453 14.3131C89.3921 14.5865 89.7749 14.9693 89.9936 15.4614C90.2123 15.8989 90.3764 16.6097 90.3764 17.594V24.9761H90.3217Z" fill="#A3B3CC"/>
        <path d="M2.82044 36.4378C2.78626 36.3694 2.75849 36.2477 2.73713 36.0725C2.46158 36.3588 2.13264 36.5019 1.75029 36.5019C1.40852 36.5019 1.12763 36.4058 0.907623 36.2135C0.689748 36.0191 0.580811 35.7735 0.580811 35.4766C0.580811 35.1156 0.717516 34.8358 0.990928 34.6371C1.26648 34.4363 1.6531 34.3359 2.15079 34.3359H2.72752V34.0636C2.72752 33.8564 2.66558 33.6919 2.54169 33.5702C2.4178 33.4463 2.23517 33.3843 1.99379 33.3843C1.78233 33.3843 1.60504 33.4377 1.46192 33.5445C1.31881 33.6513 1.24725 33.7806 1.24725 33.9322H0.6513C0.6513 33.7592 0.712176 33.5926 0.83393 33.4324C0.95782 33.2701 1.12443 33.1419 1.33376 33.0479C1.54523 32.9539 1.77699 32.9069 2.02904 32.9069C2.42848 32.9069 2.7414 33.0073 2.96782 33.2081C3.19424 33.4068 3.31172 33.6812 3.32027 34.0316V35.6272C3.32027 35.9454 3.36085 36.1986 3.44202 36.3865V36.4378H2.82044ZM1.8368 35.986C2.02263 35.986 2.19885 35.938 2.36546 35.8418C2.53207 35.7457 2.65276 35.6208 2.72752 35.467V34.7557H2.26293C1.53668 34.7557 1.17356 34.9682 1.17356 35.3933C1.17356 35.5791 1.2355 35.7244 1.35939 35.829C1.48328 35.9337 1.64242 35.986 1.8368 35.986Z" fill="#A3B3CC"/>
        <path d="M7.08182 36.4378H6.48907V34.9575H4.89666V36.4378H4.30071V32.971H4.89666V34.4737H6.48907V32.971H7.08182V36.4378Z" fill="#A3B3CC"/>
        <path d="M10.1769 36.4378C10.1427 36.3694 10.115 36.2477 10.0936 36.0725C9.81807 36.3588 9.48912 36.5019 9.10677 36.5019C8.76501 36.5019 8.48412 36.4058 8.26411 36.2135C8.04623 36.0191 7.9373 35.7735 7.9373 35.4766C7.9373 35.1156 8.074 34.8358 8.34741 34.6371C8.62296 34.4363 9.00958 34.3359 9.50728 34.3359H10.084V34.0636C10.084 33.8564 10.0221 33.6919 9.89817 33.5702C9.77428 33.4463 9.59165 33.3843 9.35028 33.3843C9.13881 33.3843 8.96152 33.4377 8.81841 33.5445C8.6753 33.6513 8.60374 33.7806 8.60374 33.9322H8.00779C8.00779 33.7592 8.06866 33.5926 8.19042 33.4324C8.31431 33.2701 8.48092 33.1419 8.69025 33.0479C8.90171 32.9539 9.13347 32.9069 9.38553 32.9069C9.78496 32.9069 10.0979 33.0073 10.3243 33.2081C10.5507 33.4068 10.6682 33.6812 10.6768 34.0316V35.6272C10.6768 35.9454 10.7173 36.1986 10.7985 36.3865V36.4378H10.1769ZM9.19328 35.986C9.37912 35.986 9.55534 35.938 9.72195 35.8418C9.88856 35.7457 10.0092 35.6208 10.084 35.467V34.7557H9.61942C8.89317 34.7557 8.53005 34.9682 8.53005 35.3933C8.53005 35.5791 8.59199 35.7244 8.71588 35.829C8.83977 35.9337 8.9989 35.986 9.19328 35.986Z" fill="#A3B3CC"/>
        <path d="M14.4479 32.971V36.4378H13.852V33.4612H12.6729L12.6024 34.7589C12.5639 35.3548 12.4635 35.781 12.3012 36.0373C12.141 36.2936 11.8857 36.4271 11.5354 36.4378H11.2983V35.9155L11.4682 35.9027C11.6604 35.8814 11.7982 35.7703 11.8815 35.5695C11.9648 35.3687 12.0182 34.997 12.0417 34.4545L12.1058 32.971H14.4479Z" fill="#A3B3CC"/>
        <path d="M17.6423 32.971H18.2351V36.4378H17.6423V33.9098L16.0435 36.4378H15.4508V32.971H16.0435V35.5022L17.6423 32.971Z" fill="#A3B3CC"/>
        <path d="M21.7628 33.4516H20.5997V36.4378H20.0069V33.4516H18.8663V32.971H21.7628V33.4516Z" fill="#A3B3CC"/>
        <path d="M24.5823 32.971H25.1751V36.4378H24.5823V33.9098L22.9835 36.4378H22.3907V32.971H22.9835V35.5022L24.5823 32.971Z" fill="#A3B3CC"/>
        <path d="M28.7444 36.4378H28.1484V35.1818C27.8878 35.2502 27.6208 35.2843 27.3474 35.2843C26.9138 35.2843 26.5827 35.1733 26.3541 34.9511C26.1277 34.729 26.0124 34.4128 26.0081 34.0027V32.9678H26.6009V34.0219C26.6115 34.5389 26.8604 34.7973 27.3474 34.7973C27.6208 34.7973 27.8878 34.7631 28.1484 34.6948V32.971H28.7444V36.4378Z" fill="#A3B3CC"/>
        <path d="M31.1346 36.5019C30.6647 36.5019 30.2823 36.3481 29.9875 36.0405C29.6928 35.7308 29.5454 35.3174 29.5454 34.8005V34.6916C29.5454 34.3477 29.6105 34.0412 29.7408 33.772C29.8733 33.5008 30.057 33.2893 30.2919 33.1376C30.529 32.9838 30.7853 32.9069 31.0609 32.9069C31.5116 32.9069 31.8619 33.0554 32.1118 33.3523C32.3617 33.6492 32.4867 34.0743 32.4867 34.6275V34.8742H30.1381C30.1467 35.216 30.246 35.4926 30.4361 35.7041C30.6283 35.9134 30.8718 36.0181 31.1666 36.0181C31.376 36.0181 31.5532 35.9753 31.6985 35.8899C31.8437 35.8045 31.9708 35.6913 32.0798 35.5503L32.4418 35.8322C32.1513 36.2787 31.7156 36.5019 31.1346 36.5019ZM31.0609 33.394C30.8217 33.394 30.6209 33.4815 30.4585 33.6567C30.2962 33.8297 30.1958 34.0732 30.1573 34.3872H31.8939V34.3423C31.8769 34.0412 31.7957 33.8083 31.6504 33.6439C31.5052 33.4773 31.3087 33.394 31.0609 33.394Z" fill="#A3B3CC"/>
        <path d="M34.5661 36.0181C34.7776 36.0181 34.9623 35.954 35.1204 35.8258C35.2785 35.6977 35.3661 35.5375 35.3831 35.3452H35.9439C35.9332 35.5439 35.8648 35.7329 35.7388 35.9123C35.6128 36.0918 35.444 36.2349 35.2326 36.3417C35.0232 36.4485 34.8011 36.5019 34.5661 36.5019C34.0941 36.5019 33.7181 36.3449 33.4383 36.0309C33.1606 35.7147 33.0218 35.2833 33.0218 34.7364V34.6371C33.0218 34.2996 33.0837 33.9995 33.2076 33.7368C33.3315 33.4741 33.5088 33.2701 33.7395 33.1248C33.9723 32.9796 34.2468 32.9069 34.5629 32.9069C34.9517 32.9069 35.2742 33.0234 35.5305 33.2562C35.789 33.489 35.9268 33.7913 35.9439 34.1629H35.3831C35.3661 33.9386 35.2806 33.7549 35.1268 33.6118C34.9752 33.4666 34.7872 33.394 34.5629 33.394C34.2617 33.394 34.0278 33.5029 33.8612 33.7208C33.6967 33.9365 33.6145 34.2494 33.6145 34.6595V34.7717C33.6145 35.1711 33.6967 35.4787 33.8612 35.6945C34.0257 35.9102 34.2607 36.0181 34.5661 36.0181Z" fill="#A3B3CC"/>
        <path d="M37.6901 34.9607H37.2575V36.4378H36.6616V32.971H37.2575V34.4385H37.6452L38.8115 32.971H39.5292L38.1578 34.6371L39.6445 36.4378H38.8916L37.6901 34.9607Z" fill="#A3B3CC"/>
        <path d="M42.3968 32.971H42.9895V36.4378H42.3968V33.9098L40.798 36.4378H40.2052V32.971H40.798V35.5022L42.3968 32.971Z" fill="#A3B3CC"/>
        <path d="M46.184 32.971H46.7767V36.4378H46.184V33.9098L44.5852 36.4378H43.9924V32.971H44.5852V35.5022L46.184 32.971ZM46.3442 31.7086C46.3442 31.9671 46.2555 32.1753 46.0782 32.3334C45.9031 32.4893 45.6724 32.5673 45.3862 32.5673C45.0999 32.5673 44.8682 32.4883 44.6909 32.3302C44.5136 32.1721 44.425 31.9649 44.425 31.7086H44.9088C44.9088 31.8581 44.9494 31.9756 45.0305 32.0611C45.1117 32.1444 45.2302 32.186 45.3862 32.186C45.5357 32.186 45.6521 32.1444 45.7354 32.0611C45.8209 31.9778 45.8636 31.8603 45.8636 31.7086H46.3442Z" fill="#A3B3CC"/>
        <path d="M52.1916 36.4378H51.5988V33.4612H50.0032V36.4378H49.4072V32.971H52.1916V36.4378Z" fill="#A3B3CC"/>
        <path d="M52.9862 34.6724C52.9862 34.3327 53.0524 34.0273 53.1848 33.756C53.3194 33.4847 53.5052 33.2754 53.7423 33.128C53.9816 32.9806 54.2539 32.9069 54.5593 32.9069C55.0314 32.9069 55.4127 33.0703 55.7032 33.3972C55.9958 33.724 56.1421 34.1587 56.1421 34.7012V34.7429C56.1421 35.0803 56.077 35.3837 55.9467 35.6528C55.8185 35.9198 55.6338 36.1281 55.3924 36.2776C55.1532 36.4271 54.8776 36.5019 54.5658 36.5019C54.0958 36.5019 53.7146 36.3385 53.4219 36.0117C53.1314 35.6848 52.9862 35.2523 52.9862 34.714V34.6724ZM53.5821 34.7429C53.5821 35.1273 53.6708 35.436 53.8481 35.6688C54.0275 35.9017 54.2667 36.0181 54.5658 36.0181C54.8669 36.0181 55.1062 35.9006 55.2835 35.6656C55.4608 35.4285 55.5494 35.0974 55.5494 34.6724C55.5494 34.2922 55.4586 33.9846 55.2771 33.7496C55.0976 33.5125 54.8584 33.394 54.5593 33.394C54.2667 33.394 54.0307 33.5104 53.8513 33.7432C53.6718 33.976 53.5821 34.3092 53.5821 34.7429Z" fill="#A3B3CC"/>
        <path d="M59.814 34.7429C59.814 35.2705 59.6933 35.6955 59.4519 36.0181C59.2106 36.3406 58.8837 36.5019 58.4715 36.5019C58.0507 36.5019 57.7196 36.3684 57.4782 36.1014V37.7707H56.8855V32.971H57.427L57.4558 33.3555C57.6972 33.0565 58.0325 32.9069 58.4619 32.9069C58.8784 32.9069 59.2074 33.0639 59.4487 33.3779C59.6922 33.6919 59.814 34.1287 59.814 34.6884V34.7429ZM59.2212 34.6756C59.2212 34.2847 59.1379 33.976 58.9713 33.7496C58.8047 33.5232 58.5762 33.41 58.2857 33.41C57.9268 33.41 57.6577 33.5691 57.4782 33.8874V35.5439C57.6555 35.86 57.9268 36.0181 58.2921 36.0181C58.5762 36.0181 58.8015 35.9059 58.9681 35.6816C59.1369 35.4552 59.2212 35.1199 59.2212 34.6756Z" fill="#A3B3CC"/>
        <path d="M62.8899 33.4516H61.7268V36.4378H61.1341V33.4516H59.9934V32.971H62.8899V33.4516Z" fill="#A3B3CC"/>
        <path d="M65.5556 36.4378C65.5215 36.3694 65.4937 36.2477 65.4723 36.0725C65.1968 36.3588 64.8678 36.5019 64.4855 36.5019C64.1437 36.5019 63.8628 36.4058 63.6428 36.2135C63.4249 36.0191 63.316 35.7735 63.316 35.4766C63.316 35.1156 63.4527 34.8358 63.7261 34.6371C64.0017 34.4363 64.3883 34.3359 64.886 34.3359H65.4627V34.0636C65.4627 33.8564 65.4008 33.6919 65.2769 33.5702C65.153 33.4463 64.9704 33.3843 64.729 33.3843C64.5175 33.3843 64.3402 33.4377 64.1971 33.5445C64.054 33.6513 63.9824 33.7806 63.9824 33.9322H63.3865C63.3865 33.7592 63.4474 33.5926 63.5691 33.4324C63.693 33.2701 63.8596 33.1419 64.069 33.0479C64.2804 32.9539 64.5122 32.9069 64.7642 32.9069C65.1637 32.9069 65.4766 33.0073 65.703 33.2081C65.9294 33.4068 66.0469 33.6812 66.0555 34.0316V35.6272C66.0555 35.9454 66.096 36.1986 66.1772 36.3865V36.4378H65.5556ZM64.572 35.986C64.7578 35.986 64.934 35.938 65.1007 35.8418C65.2673 35.7457 65.388 35.6208 65.4627 35.467V34.7557H64.9981C64.2719 34.7557 63.9088 34.9682 63.9088 35.3933C63.9088 35.5791 63.9707 35.7244 64.0946 35.829C64.2185 35.9337 64.3776 35.986 64.572 35.986Z" fill="#A3B3CC"/>
        <path d="M69.8266 32.971V36.4378H69.2307V33.4612H68.0516L67.9811 34.7589C67.9426 35.3548 67.8423 35.781 67.6799 36.0373C67.5197 36.2936 67.2645 36.4271 66.9141 36.4378H66.677V35.9155L66.8469 35.9027C67.0391 35.8814 67.1769 35.7703 67.2602 35.5695C67.3435 35.3687 67.3969 34.997 67.4204 34.4545L67.4845 32.971H69.8266Z" fill="#A3B3CC"/>
        <path d="M75.3344 34.7429C75.3344 35.2705 75.2137 35.6955 74.9723 36.0181C74.7309 36.3406 74.4041 36.5019 73.9919 36.5019C73.5711 36.5019 73.24 36.3684 72.9986 36.1014V37.7707H72.4059V32.971H72.9474L72.9762 33.3555C73.2176 33.0565 73.5529 32.9069 73.9823 32.9069C74.3988 32.9069 74.7277 33.0639 74.9691 33.3779C75.2126 33.6919 75.3344 34.1287 75.3344 34.6884V34.7429ZM74.7416 34.6756C74.7416 34.2847 74.6583 33.976 74.4917 33.7496C74.3251 33.5232 74.0965 33.41 73.806 33.41C73.4472 33.41 73.1781 33.5691 72.9986 33.8874V35.5439C73.1759 35.86 73.4472 36.0181 73.8125 36.0181C74.0965 36.0181 74.3219 35.9059 74.4885 35.6816C74.6573 35.4552 74.7416 35.1199 74.7416 34.6756Z" fill="#A3B3CC"/>
        <path d="M76.7377 34.1661H77.6381C78.0311 34.1704 78.3419 34.2729 78.5705 34.4737C78.799 34.6745 78.9133 34.9468 78.9133 35.2907C78.9133 35.6368 78.7958 35.9145 78.5609 36.1238C78.3259 36.3331 78.0098 36.4378 77.6124 36.4378H76.145V32.971H76.7377V34.1661ZM80.1501 36.4378H79.5541V32.971H80.1501V36.4378ZM76.7377 34.6499V35.954H77.6189C77.841 35.954 78.013 35.8974 78.1347 35.7842C78.2565 35.6688 78.3173 35.5118 78.3173 35.3132C78.3173 35.1209 78.2575 34.9639 78.1379 34.8422C78.0204 34.7183 77.8549 34.6542 77.6413 34.6499H76.7377Z" fill="#A3B3CC"/>
        <path d="M84.0173 36.4378H83.4246V34.9575H81.8322V36.4378H81.2362V32.971H81.8322V34.4737H83.4246V32.971H84.0173V36.4378Z" fill="#A3B3CC"/>
        <path d="M86.0519 34.9607H85.6194V36.4378H85.0234V32.971H85.6194V34.4385H86.007L87.1733 32.971H87.891L86.5197 34.6371L88.0064 36.4378H87.2534L86.0519 34.9607Z" fill="#A3B3CC"/>
        <path d="M90.6561 36.4378C90.6219 36.3694 90.5942 36.2477 90.5728 36.0725C90.2973 36.3588 89.9683 36.5019 89.586 36.5019C89.2442 36.5019 88.9633 36.4058 88.7433 36.2135C88.5254 36.0191 88.4165 35.7735 88.4165 35.4766C88.4165 35.1156 88.5532 34.8358 88.8266 34.6371C89.1022 34.4363 89.4888 34.3359 89.9865 34.3359H90.5632V34.0636C90.5632 33.8564 90.5013 33.6919 90.3774 33.5702C90.2535 33.4463 90.0708 33.3843 89.8295 33.3843C89.618 33.3843 89.4407 33.4377 89.2976 33.5445C89.1545 33.6513 89.0829 33.7806 89.0829 33.9322H88.487C88.487 33.7592 88.5479 33.5926 88.6696 33.4324C88.7935 33.2701 88.9601 33.1419 89.1694 33.0479C89.3809 32.9539 89.6127 32.9069 89.8647 32.9069C90.2642 32.9069 90.5771 33.0073 90.8035 33.2081C91.0299 33.4068 91.1474 33.6812 91.156 34.0316V35.6272C91.156 35.9454 91.1965 36.1986 91.2777 36.3865V36.4378H90.6561ZM89.6725 35.986C89.8583 35.986 90.0345 35.938 90.2011 35.8418C90.3678 35.7457 90.4884 35.6208 90.5632 35.467V34.7557H90.0986C89.3724 34.7557 89.0092 34.9682 89.0092 35.3933C89.0092 35.5791 89.0712 35.7244 89.1951 35.829C89.319 35.9337 89.4781 35.986 89.6725 35.986Z" fill="#A3B3CC"/>
        <path d="M93.7672 36.4378V32.971H95.1194C95.5807 32.971 95.9342 33.0522 96.1799 33.2145C96.4277 33.3747 96.5516 33.6108 96.5516 33.9226C96.5516 34.0828 96.5035 34.2281 96.4074 34.3584C96.3113 34.4865 96.1692 34.5848 95.9812 34.6531C96.1906 34.7023 96.3582 34.7984 96.4843 34.9415C96.6124 35.0846 96.6765 35.2555 96.6765 35.4542C96.6765 35.7724 96.559 36.0159 96.3241 36.1847C96.0912 36.3534 95.7612 36.4378 95.334 36.4378H93.7672ZM94.36 34.9159V35.9604H95.3404C95.5882 35.9604 95.773 35.9145 95.8947 35.8226C96.0186 35.7308 96.0806 35.6015 96.0806 35.4349C96.0806 35.0889 95.8264 34.9159 95.318 34.9159H94.36ZM94.36 34.4417H95.1258C95.6811 34.4417 95.9588 34.2793 95.9588 33.9547C95.9588 33.63 95.6961 33.4623 95.1706 33.4516H94.36V34.4417Z" fill="#A3B3CC"/>
        <path d="M98.9001 36.5019C98.4302 36.5019 98.0479 36.3481 97.7531 36.0405C97.4583 35.7308 97.3109 35.3174 97.3109 34.8005V34.6916C97.3109 34.3477 97.3761 34.0412 97.5064 33.772C97.6388 33.5008 97.8225 33.2893 98.0575 33.1376C98.2946 32.9838 98.5509 32.9069 98.8264 32.9069C99.2771 32.9069 99.6274 33.0554 99.8774 33.3523C100.127 33.6492 100.252 34.0743 100.252 34.6275V34.8742H97.9037C97.9122 35.216 98.0115 35.4926 98.2016 35.7041C98.3939 35.9134 98.6374 36.0181 98.9322 36.0181C99.1415 36.0181 99.3188 35.9753 99.464 35.8899C99.6093 35.8045 99.7364 35.6913 99.8453 35.5503L100.207 35.8322C99.9169 36.2787 99.4811 36.5019 98.9001 36.5019ZM98.8264 33.394C98.5872 33.394 98.3864 33.4815 98.2241 33.6567C98.0617 33.8297 97.9613 34.0732 97.9229 34.3872H99.6595V34.3423C99.6424 34.0412 99.5612 33.8083 99.416 33.6439C99.2707 33.4773 99.0742 33.394 98.8264 33.394Z" fill="#A3B3CC"/>
        <path d="M102.463 33.1697C102.899 33.1697 103.247 33.316 103.508 33.6086C103.77 33.8991 103.902 34.2825 103.902 34.7589V34.8133C103.902 35.1402 103.839 35.4328 103.713 35.6913C103.587 35.9476 103.405 36.1473 103.168 36.2904C102.933 36.4314 102.662 36.5019 102.354 36.5019C101.888 36.5019 101.514 36.347 101.229 36.0373C100.945 35.7254 100.803 35.3078 100.803 34.7845V34.4961C100.803 33.7678 100.938 33.1889 101.207 32.7596C101.478 32.3302 101.878 32.0685 102.405 31.9746C102.704 31.9212 102.906 31.856 103.011 31.7791C103.116 31.7022 103.168 31.5965 103.168 31.4619H103.655C103.655 31.7289 103.594 31.9372 103.472 32.0867C103.353 32.2362 103.16 32.342 102.896 32.4039L102.453 32.5032C102.101 32.5865 101.836 32.7275 101.659 32.9262C101.484 33.1227 101.369 33.3854 101.316 33.7144C101.63 33.3512 102.012 33.1697 102.463 33.1697ZM102.348 33.6567C102.057 33.6567 101.826 33.7549 101.656 33.9515C101.485 34.1458 101.399 34.416 101.399 34.7621V34.8133C101.399 35.185 101.485 35.4798 101.656 35.6977C101.829 35.9134 102.061 36.0213 102.354 36.0213C102.649 36.0213 102.882 35.9123 103.053 35.6945C103.223 35.4766 103.309 35.1583 103.309 34.7397C103.309 34.4128 103.222 34.1512 103.049 33.9547C102.878 33.756 102.645 33.6567 102.348 33.6567Z" fill="#A3B3CC"/>
        <path d="M105.802 34.698H104.238V34.2142H105.802V34.698Z" fill="#A3B3CC"/>
        <path d="M109.31 34.7429C109.31 35.2705 109.189 35.6955 108.948 36.0181C108.707 36.3406 108.38 36.5019 107.968 36.5019C107.547 36.5019 107.216 36.3684 106.974 36.1014V37.7707H106.382V32.971H106.923L106.952 33.3555C107.193 33.0565 107.529 32.9069 107.958 32.9069C108.374 32.9069 108.703 33.0639 108.945 33.3779C109.188 33.6919 109.31 34.1287 109.31 34.6884V34.7429ZM108.717 34.6756C108.717 34.2847 108.634 33.976 108.467 33.7496C108.301 33.5232 108.072 33.41 107.782 33.41C107.423 33.41 107.154 33.5691 106.974 33.8874V35.5439C107.152 35.86 107.423 36.0181 107.788 36.0181C108.072 36.0181 108.298 35.9059 108.464 35.6816C108.633 35.4552 108.717 35.1199 108.717 34.6756Z" fill="#A3B3CC"/>
        <path d="M112.207 36.4378C112.172 36.3694 112.145 36.2477 112.123 36.0725C111.848 36.3588 111.519 36.5019 111.136 36.5019C110.795 36.5019 110.514 36.4058 110.294 36.2135C110.076 36.0191 109.967 35.7735 109.967 35.4766C109.967 35.1156 110.104 34.8358 110.377 34.6371C110.653 34.4363 111.039 34.3359 111.537 34.3359H112.114V34.0636C112.114 33.8564 112.052 33.6919 111.928 33.5702C111.804 33.4463 111.621 33.3843 111.38 33.3843C111.168 33.3843 110.991 33.4377 110.848 33.5445C110.705 33.6513 110.633 33.7806 110.633 33.9322H110.037C110.037 33.7592 110.098 33.5926 110.22 33.4324C110.344 33.2701 110.511 33.1419 110.72 33.0479C110.931 32.9539 111.163 32.9069 111.415 32.9069C111.815 32.9069 112.127 33.0073 112.354 33.2081C112.58 33.4068 112.698 33.6812 112.706 34.0316V35.6272C112.706 35.9454 112.747 36.1986 112.828 36.3865V36.4378H112.207ZM111.223 35.986C111.409 35.986 111.585 35.938 111.752 35.8418C111.918 35.7457 112.039 35.6208 112.114 35.467V34.7557H111.649C110.923 34.7557 110.56 34.9682 110.56 35.3933C110.56 35.5791 110.622 35.7244 110.745 35.829C110.869 35.9337 111.029 35.986 111.223 35.986Z" fill="#A3B3CC"/>
        <path d="M115.542 33.9194C115.542 33.7571 115.48 33.6289 115.356 33.5349C115.232 33.4388 115.062 33.3907 114.847 33.3907C114.637 33.3907 114.462 33.4452 114.321 33.5542C114.182 33.6631 114.113 33.7913 114.113 33.9386H113.523C113.523 33.6375 113.649 33.3907 113.901 33.1985C114.154 33.0063 114.469 32.9101 114.847 32.9101C115.253 32.9101 115.569 32.9977 115.795 33.1729C116.021 33.3459 116.135 33.5937 116.135 33.9162C116.135 34.0721 116.088 34.2153 115.994 34.3456C115.9 34.4759 115.766 34.5794 115.593 34.6563C115.997 34.7931 116.199 35.0622 116.199 35.4638C116.199 35.782 116.076 36.0341 115.83 36.2199C115.585 36.4058 115.257 36.4987 114.847 36.4987C114.447 36.4987 114.117 36.4015 113.857 36.2071C113.598 36.0106 113.469 35.7457 113.469 35.4125H114.058C114.058 35.5812 114.133 35.7265 114.283 35.8483C114.434 35.9679 114.622 36.0277 114.847 36.0277C115.073 36.0277 115.256 35.9753 115.395 35.8707C115.533 35.766 115.603 35.6304 115.603 35.4638C115.603 35.2694 115.544 35.1305 115.427 35.0472C115.311 34.9618 115.131 34.9191 114.885 34.9191H114.292V34.4192H114.936C115.34 34.4086 115.542 34.242 115.542 33.9194Z" fill="#A3B3CC"/>
        <path d="M119.896 34.7429C119.896 35.2705 119.776 35.6955 119.534 36.0181C119.293 36.3406 118.966 36.5019 118.554 36.5019C118.133 36.5019 117.802 36.3684 117.56 36.1014V37.7707H116.968V32.971H117.509L117.538 33.3555C117.779 33.0565 118.115 32.9069 118.544 32.9069C118.961 32.9069 119.29 33.0639 119.531 33.3779C119.774 33.6919 119.896 34.1287 119.896 34.6884V34.7429ZM119.303 34.6756C119.303 34.2847 119.22 33.976 119.054 33.7496C118.887 33.5232 118.658 33.41 118.368 33.41C118.009 33.41 117.74 33.5691 117.56 33.8874V35.5439C117.738 35.86 118.009 36.0181 118.374 36.0181C118.658 36.0181 118.884 35.9059 119.05 35.6816C119.219 35.4552 119.303 35.1199 119.303 34.6756Z" fill="#A3B3CC"/>
        <path d="M122.793 36.4378C122.759 36.3694 122.731 36.2477 122.709 36.0725C122.434 36.3588 122.105 36.5019 121.723 36.5019C121.381 36.5019 121.1 36.4058 120.88 36.2135C120.662 36.0191 120.553 35.7735 120.553 35.4766C120.553 35.1156 120.69 34.8358 120.963 34.6371C121.239 34.4363 121.625 34.3359 122.123 34.3359H122.7V34.0636C122.7 33.8564 122.638 33.6919 122.514 33.5702C122.39 33.4463 122.207 33.3843 121.966 33.3843C121.755 33.3843 121.577 33.4377 121.434 33.5445C121.291 33.6513 121.219 33.7806 121.219 33.9322H120.624C120.624 33.7592 120.684 33.5926 120.806 33.4324C120.93 33.2701 121.097 33.1419 121.306 33.0479C121.517 32.9539 121.749 32.9069 122.001 32.9069C122.401 32.9069 122.714 33.0073 122.94 33.2081C123.166 33.4068 123.284 33.6812 123.293 34.0316V35.6272C123.293 35.9454 123.333 36.1986 123.414 36.3865V36.4378H122.793ZM121.809 35.986C121.995 35.986 122.171 35.938 122.338 35.8418C122.504 35.7457 122.625 35.6208 122.7 35.467V34.7557H122.235C121.509 34.7557 121.146 34.9682 121.146 35.3933C121.146 35.5791 121.208 35.7244 121.332 35.829C121.456 35.9337 121.615 35.986 121.809 35.986Z" fill="#A3B3CC"/>
        <path d="M125.744 33.1697C126.179 33.1697 126.528 33.316 126.788 33.6086C127.051 33.8991 127.182 34.2825 127.182 34.7589V34.8133C127.182 35.1402 127.119 35.4328 126.993 35.6913C126.867 35.9476 126.686 36.1473 126.449 36.2904C126.214 36.4314 125.942 36.5019 125.635 36.5019C125.169 36.5019 124.794 36.347 124.51 36.0373C124.226 35.7254 124.084 35.3078 124.084 34.7845V34.4961C124.084 33.7678 124.218 33.1889 124.488 32.7596C124.759 32.3302 125.158 32.0685 125.686 31.9746C125.985 31.9212 126.187 31.856 126.292 31.7791C126.396 31.7022 126.449 31.5965 126.449 31.4619H126.936C126.936 31.7289 126.875 31.9372 126.753 32.0867C126.633 32.2362 126.441 32.342 126.176 32.4039L125.734 32.5032C125.382 32.5865 125.117 32.7275 124.939 32.9262C124.764 33.1227 124.65 33.3854 124.597 33.7144C124.911 33.3512 125.293 33.1697 125.744 33.1697ZM125.628 33.6567C125.338 33.6567 125.107 33.7549 124.936 33.9515C124.765 34.1458 124.68 34.416 124.68 34.7621V34.8133C124.68 35.185 124.765 35.4798 124.936 35.6977C125.109 35.9134 125.342 36.0213 125.635 36.0213C125.929 36.0213 126.162 35.9123 126.333 35.6945C126.504 35.4766 126.589 35.1583 126.589 34.7397C126.589 34.4128 126.503 34.1512 126.33 33.9547C126.159 33.756 125.925 33.6567 125.628 33.6567Z" fill="#A3B3CC"/>
        <path d="M127.692 34.6724C127.692 34.3327 127.758 34.0273 127.89 33.756C128.025 33.4847 128.211 33.2754 128.448 33.128C128.687 32.9806 128.959 32.9069 129.265 32.9069C129.737 32.9069 130.118 33.0703 130.409 33.3972C130.701 33.724 130.848 34.1587 130.848 34.7012V34.7429C130.848 35.0803 130.783 35.3837 130.652 35.6528C130.524 35.9198 130.339 36.1281 130.098 36.2776C129.859 36.4271 129.583 36.5019 129.271 36.5019C128.801 36.5019 128.42 36.3385 128.127 36.0117C127.837 35.6848 127.692 35.2523 127.692 34.714V34.6724ZM128.288 34.7429C128.288 35.1273 128.376 35.436 128.554 35.6688C128.733 35.9017 128.972 36.0181 129.271 36.0181C129.572 36.0181 129.812 35.9006 129.989 35.6656C130.166 35.4285 130.255 35.0974 130.255 34.6724C130.255 34.2922 130.164 33.9846 129.983 33.7496C129.803 33.5125 129.564 33.394 129.265 33.394C128.972 33.394 128.736 33.5104 128.557 33.7432C128.377 33.976 128.288 34.3092 128.288 34.7429Z" fill="#A3B3CC"/>
        <path d="M134.097 33.4516H132.933V36.4378H132.341V33.4516H131.2V32.971H134.097V33.4516Z" fill="#A3B3CC"/>
        <path d="M134.382 34.6724C134.382 34.3327 134.448 34.0273 134.58 33.756C134.715 33.4847 134.901 33.2754 135.138 33.128C135.377 32.9806 135.649 32.9069 135.955 32.9069C136.427 32.9069 136.808 33.0703 137.099 33.3972C137.391 33.724 137.538 34.1587 137.538 34.7012V34.7429C137.538 35.0803 137.473 35.3837 137.342 35.6528C137.214 35.9198 137.029 36.1281 136.788 36.2776C136.549 36.4271 136.273 36.5019 135.961 36.5019C135.491 36.5019 135.11 36.3385 134.817 36.0117C134.527 35.6848 134.382 35.2523 134.382 34.714V34.6724ZM134.978 34.7429C134.978 35.1273 135.066 35.436 135.244 35.6688C135.423 35.9017 135.662 36.0181 135.961 36.0181C136.262 36.0181 136.502 35.9006 136.679 35.6656C136.856 35.4285 136.945 35.0974 136.945 34.6724C136.945 34.2922 136.854 33.9846 136.673 33.7496C136.493 33.5125 136.254 33.394 135.955 33.394C135.662 33.394 135.426 33.5104 135.247 33.7432C135.067 33.976 134.978 34.3092 134.978 34.7429Z" fill="#A3B3CC"/>
        <path d="M139.361 34.9607H138.928V36.4378H138.332V32.971H138.928V34.4385H139.316L140.482 32.971H141.2L139.829 34.6371L141.315 36.4378H140.562L139.361 34.9607Z" fill="#A3B3CC"/>
    </g>
    <defs>
        <clipPath id="clip0_1701_65">
            <rect width="171.156" height="37.184" fill="white" transform="translate(0.369141 0.971191)"/>
        </clipPath>
    </defs>
</svg>
